Time Series
…
Code

tourism_features <- 
  tourism |> 
  filter(Purpose == "Holiday") |>
  features(Trips, feature_set(pkgs = "feasts")) |> 
    mutate(
    State = sapply(State, acronym),
    seasonal_peak_year = factor(seasonal_peak_year),
    seasonal_trough_year = factor(seasonal_trough_year),
  ) |> 
  select_at(vars(State, contains('trend'), contains("season")))
tourism_features

# A tibble: 76 × 7
   State trend_strength seasonal_strength_year seasonal_peak_year
   <chr>          <dbl>                  <dbl> <fct>             
 1 SA             0.554                  0.619 1                 
 2 SA             0.528                  0.296 2                 
 3 NT             0.381                  0.832 3                 
 4 WA             0.732                  0.308 3                 
 5 WA             0.626                  0.393 1                 
 6 WA             0.702                  0.876 3                 
 7 WA             0.848                  0.875 1                 
 8 V              0.412                  0.337 1                 
 9 NT             0.325                  0.626 3                 
10 SA             0.266                  0.194 2                 
# ℹ 66 more rows
# ℹ 3 more variables: seasonal_trough_year <fct>, season_acf1 <dbl>,
#   season_pacf <dbl>
…
Code

pbs_features <- PBS |> 
  features(Scripts, feature_set(pkgs = "feasts"))

Error in ar.burg.default(x, aic = aic, order.max = order.max, na.action = na.action,  : 
  zero-variance series
Error in ar.burg.default(x, aic = aic, order.max = order.max, na.action = na.action,  : 
  zero-variance series

Code

pbs_features

# A tibble: 336 × 53
   Concession   Type        ATC1  ATC2  trend_strength seasonal_strength_year
   <chr>        <chr>       <chr> <chr>          <dbl>                  <dbl>
 1 Concessional Co-payments A     A01            0.845                  0.918
 2 Concessional Co-payments A     A02            0.970                  0.943
 3 Concessional Co-payments A     A03            0.956                  0.931
 4 Concessional Co-payments A     A04            0.790                  0.930
 5 Concessional Co-payments A     A05            0.950                  0.888
 6 Concessional Co-payments A     A06            0.952                  0.955
 7 Concessional Co-payments A     A07            0.804                  0.920
 8 Concessional Co-payments A     A09            0.900                  0.901
 9 Concessional Co-payments A     A10            0.975                  0.952
10 Concessional Co-payments A     A11            0.963                  0.881
# ℹ 326 more rows
# ℹ 47 more variables: seasonal_peak_year <dbl>, seasonal_trough_year <dbl>,
#   spikiness <dbl>, linearity <dbl>, curvature <dbl>, stl_e_acf1 <dbl>,
#   stl_e_acf10 <dbl>, acf1 <dbl>, acf10 <dbl>, diff1_acf1 <dbl>,
#   diff1_acf10 <dbl>, diff2_acf1 <dbl>, diff2_acf10 <dbl>, season_acf1 <dbl>,
#   pacf5 <dbl>, diff1_pacf5 <dbl>, diff2_pacf5 <dbl>, season_pacf <dbl>,
#   zero_run_mean <dbl>, nonzero_squared_cv <dbl>, zero_start_prop <dbl>, …
…
Code

pcs <- results |> augment(pbs_features)
pcs

# A tibble: 336 × 74
   .rownames Concession  Type  ATC1  ATC2  trend_strength seasonal_strength_year
   <chr>     <chr>       <chr> <chr> <chr>          <dbl>                  <dbl>
 1 1         Concession… Co-p… A     A01            0.845                  0.918
 2 2         Concession… Co-p… A     A02            0.970                  0.943
 3 3         Concession… Co-p… A     A03            0.956                  0.931
 4 4         Concession… Co-p… A     A04            0.790                  0.930
 5 5         Concession… Co-p… A     A05            0.950                  0.888
 6 6         Concession… Co-p… A     A06            0.952                  0.955
 7 7         Concession… Co-p… A     A07            0.804                  0.920
 8 8         Concession… Co-p… A     A09            0.900                  0.901
 9 9         Concession… Co-p… A     A10            0.975                  0.952
10 10        Concession… Co-p… A     A11            0.963                  0.881
# ℹ 326 more rows
# ℹ 67 more variables: seasonal_peak_year <dbl>, seasonal_trough_year <dbl>,
#   spikiness <dbl>, linearity <dbl>, curvature <dbl>, stl_e_acf1 <dbl>,
#   stl_e_acf10 <dbl>, acf1 <dbl>, acf10 <dbl>, diff1_acf1 <dbl>,
#   diff1_acf10 <dbl>, diff2_acf1 <dbl>, diff2_acf10 <dbl>, season_acf1 <dbl>,
#   pacf5 <dbl>, diff1_pacf5 <dbl>, diff2_pacf5 <dbl>, season_pacf <dbl>,
#   zero_run_mean <dbl>, nonzero_squared_cv <dbl>, zero_start_prop <dbl>, …
…
