Time Series
…
Australian takeaway food turnover (aus_retail)

Code

takeout <- aus_retail |> filter(Industry == 'Takeaway food services')
takeout

# A tsibble: 3,456 x 5 [1M]
# Key:       State, Industry [8]
   State                        Industry           `Series ID`    Month Turnover
   <chr>                        <chr>              <chr>          <mth>    <dbl>
 1 Australian Capital Territory Takeaway food ser… A3349850K   1982 Apr      3.2
 2 Australian Capital Territory Takeaway food ser… A3349850K   1982 May      3.3
 3 Australian Capital Territory Takeaway food ser… A3349850K   1982 Jun      3.5
 4 Australian Capital Territory Takeaway food ser… A3349850K   1982 Jul      3.5
 5 Australian Capital Territory Takeaway food ser… A3349850K   1982 Aug      3.7
 6 Australian Capital Territory Takeaway food ser… A3349850K   1982 Sep      3.9
 7 Australian Capital Territory Takeaway food ser… A3349850K   1982 Oct      4  
 8 Australian Capital Territory Takeaway food ser… A3349850K   1982 Nov      4.3
 9 Australian Capital Territory Takeaway food ser… A3349850K   1982 Dec      4.3
10 Australian Capital Territory Takeaway food ser… A3349850K   1983 Jan      3.9
# ℹ 3,446 more rows
…
The accuracy figures for the forecast look better than the actually are, as the forecast mismatch against actual turnover in the graph above demonstrates. If the forecast line actually tracked the actual turnover line then these figures might have some real significance. It is imperative to see how the forecast model performs visually to ascertain what level of confidence to give to the statistical values produced in terms of accuracy.

Exercise 8

Consider the number of pigs slaughtered in New South Wales (data set aus_livestock).

Code

pigs <- aus_livestock |> filter(State == 'New South Wales', Animal == 'Pigs') 
pigs

# A tsibble: 558 x 4 [1M]
# Key:       Animal, State [1]
      Month Animal State            Count
      <mth> <fct>  <fct>            <dbl>
 1 1972 Jul Pigs   New South Wales  97400
 2 1972 Aug Pigs   New South Wales 114700
 3 1972 Sep Pigs   New South Wales 109900
 4 1972 Oct Pigs   New South Wales 108300
 5 1972 Nov Pigs   New South Wales 122200
 6 1972 Dec Pigs   New South Wales 106900
 7 1973 Jan Pigs   New South Wales  96600
 8 1973 Feb Pigs   New South Wales  96700
 9 1973 Mar Pigs   New South Wales 121200
10 1973 Apr Pigs   New South Wales  99300
# ℹ 548 more rows

Create a training set of 486 observations, withholding a test set of 72 observations (6 years).

Code

pigs_training <- pigs |> slice(0:486)
pigs_training

# A tsibble: 486 x 4 [1M]
# Key:       Animal, State [1]
      Month Animal State            Count
      <mth> <fct>  <fct>            <dbl>
 1 1972 Jul Pigs   New South Wales  97400
 2 1972 Aug Pigs   New South Wales 114700
 3 1972 Sep Pigs   New South Wales 109900
 4 1972 Oct Pigs   New South Wales 108300
 5 1972 Nov Pigs   New South Wales 122200
 6 1972 Dec Pigs   New South Wales 106900
 7 1973 Jan Pigs   New South Wales  96600
 8 1973 Feb Pigs   New South Wales  96700
 9 1973 Mar Pigs   New South Wales 121200
10 1973 Apr Pigs   New South Wales  99300
# ℹ 476 more rows

Code

pigs_test <- pigs |> slice(487:n())
pigs_test

# A tsibble: 72 x 4 [1M]
# Key:       Animal, State [1]
      Month Animal State           Count
      <mth> <fct>  <fct>           <dbl>
 1 2013 Jan Pigs   New South Wales 71300
 2 2013 Feb Pigs   New South Wales 69700
 3 2013 Mar Pigs   New South Wales 79900
 4 2013 Apr Pigs   New South Wales 74300
 5 2013 May Pigs   New South Wales 87200
 6 2013 Jun Pigs   New South Wales 71200
 7 2013 Jul Pigs   New South Wales 86200
 8 2013 Aug Pigs   New South Wales 78000
 9 2013 Sep Pigs   New South Wales 71200
10 2013 Oct Pigs   New South Wales 78200
# ℹ 62 more rows
…
